Statistical analysis and presentation using R - 5 Advanced recoding of variables
…
5  Advanced recoding of variables

5.1 Recoding variables using case_when

Frequently, we need to modify or transform data based on various possible conditions. We can do this using the case_when() function from the dplyr package.

We will illustrate the usage of this function on a data set with GPA grades (available from the openintro package).

The data frame contains the variables ‘gpa’ and ‘study_hours’ for a sample of 193 undergraduate students who took an introductory statistics course in 2012 at a private US university. The data is shown as tibble below:

library(openintro) 
library(tidyverse) #needed for displaying the data set as tibble
as_tibble(gpa_study_hours)

# A tibble: 193 × 2
     gpa study_hours
   <dbl>       <dbl>
 1  4             10
 2  3.8           25
 3  3.93          45
 4  3.4           10
 5  3.2            4
 6  3.52          10
 7  3.68          24
 8  3.4           40
 9  3.7           10
10  3.75          10
# ℹ 183 more rows
…
! means ‘NOT’

To use case_when(), we must tell R where to save the result: either by assigning the result to the current variable, or by assigning it to a new variable in our recoding procedure. For this, we use mutate(). It is very important that you specify a new variable with mutate() while recoding (or an existing variable that will be overwritten). Otherwise R will not know where to put the new, recoded data.

gpa_study_hours <- gpa_study_hours |>
  mutate(gpa_grade = case_when(
    gpa >= 3.7 ~ "A",
    gpa >= 2.7 ~ "B",
    gpa >= 1.7 ~ "C",
    gpa >= 1.3 ~ "D",
    gpa < 1.3 ~ "F"))  # Note the two brackets at the end (!)
gpa_study_hours

# A tibble: 193 × 3
     gpa study_hours gpa_grade
   <dbl>       <dbl> <chr>    
 1  4             10 A        
 2  3.8           25 A        
 3  3.93          45 A        
 4  3.4           10 B        
 5  3.2            4 B        
 6  3.52          10 B        
 7  3.68          24 B        
 8  3.4           40 B        
 9  3.7           10 A        
10  3.75          10 A        
# ℹ 183 more rows
…
